{
    "pipeline_params":
    {
        "env_name":"user",
        "pipeline_name":"yolox_mmdet",
        "zone_name":"test"
    },
    "step_params":
    {
        "step_name": "model_pack"
    },
    "substeps_params":
    [        
        {
            "substep_name":"model_pack.ipynb",
            "substep_params":
            {
            }
        }
    ]
}